module hello-go

go 1.12

require (
	cloud.google.com/go v0.39.0 // indirect
	github.com/PuerkitoBio/goquery v1.5.0
	github.com/axgle/mahonia v0.0.0-20180208002826-3358181d7394
	github.com/denisenkom/go-mssqldb v0.0.0-20190515213511-eb9f6a1743f3 // indirect
	github.com/easierway/concurrent_map v0.0.0-20190103024436-7073b0dd7e95
	github.com/golang/mock v1.3.1 // indirect
	github.com/google/btree v1.0.0 // indirect
	github.com/google/pprof v0.0.0-20190515194954-54271f7e092f // indirect
	github.com/jinzhu/gorm v1.9.8 // indirect
	github.com/jinzhu/inflection v0.0.0-20190603042836-f5c5f50e6090 // indirect
	github.com/kr/pty v1.1.4 // indirect
	github.com/lib/pq v1.1.1 // indirect
	github.com/olebedev/config v0.0.0-20180910155717-57f804269e64
	go.opencensus.io v0.22.0 // indirect
	golang.org/x/crypto v0.0.0-20190605123033-f99c8df09eb5 // indirect
	golang.org/x/exp v0.0.0-20190510132918-efd6b22b2522 // indirect
	golang.org/x/image v0.0.0-20190523035834-f03afa92d3ff // indirect
	golang.org/x/lint v0.0.0-20190409202823-959b441ac422 // indirect
	golang.org/x/mobile v0.0.0-20190509164839-32b2708ab171 // indirect
	golang.org/x/mod v0.1.0 // indirect
	golang.org/x/net v0.0.0-20190603091049-60506f45cf65 // indirect
	golang.org/x/oauth2 v0.0.0-20190604053449-0f29369cfe45 // indirect
	golang.org/x/sys v0.0.0-20190602015325-4c4f7f33c9ed // indirect
	golang.org/x/time v0.0.0-20190308202827-9d24e82272b4 // indirect
	golang.org/x/tools v0.0.0-20190606050223-4d9ae51c2468 // indirect
	google.golang.org/appengine v1.6.0 // indirect
	google.golang.org/genproto v0.0.0-20190605220351-eb0b1bdb6ae6 // indirect
	google.golang.org/grpc v1.21.1 // indirect
	honnef.co/go/tools v0.0.0-20190605142022-0a11fc526260 // indirect
)
